{
  "model": "courseClasses",
  "settings": {
    "i18n": {
      "el": {
        "Course Name": "Τίτλος μαθήματος",
        "Edit the title of this class. It can differ from academic year to academic year.": "Ορίστε τον τίτλο της τάξης. Μπορεί να διαφέρει από ακαδημαϊκό έτος σε ακαδημαϊκό έτος.",
        "Select the academic period this course class is being taught.": "Επιλέξτε την ακαδημαϊκή περίοδο διδασκαλίας της τάξης αυτής.",
        "Select the academic year this course class is taking place.": "Επιλέξτε το ακαδημαϊκό έτος διδασκαλίας της τάξης αυτής.",
        "Set the maximum number of students that can be enrolled in this class. If left blank, no limit will be set.": "Ορίστε το μεγιστό αριθμό φοιτητών που μπορούν να εγγραφούν στην τάξη. Εάν αφεθεί κενό, δε θα οριστεί κάποιο όριο.",
        "Set the number of hours this class is being taught per week.": "Ορίστε τον εβδομαδιαίο αριθμό ωρών διδασκαλίας της τάξης.",
        "Set the total number of hours this class will be taught in the selected academic period": "Ορίστε τον αριθμό ωρών διδασκαλίας της τάξης για την επιλεγμένη ακαδημαϊκή περίοδο.",
        "Must Register Section": "Υποχρεωτική δήλωση τμήματος τάξης",
        "Select if the course class section registration is mandatory during course class registration": "Επιλέξτε αν η εγγραφή σε τμήμα τάξης είναι υποχρεωτική κατά την δήλωση μαθημάτων."
      }
    }
  },
  "components": [
    {
      "type": "fieldset",
      "legend": "Course Details",
      "components": [
        {
          "customClass": "text-dark",
          "hideLabel": true,
          "type": "columns",
          "input": false,
          "columns": [
            {
              "components": [
                {
                  "label": "Course ID",
                  "labelPosition": "top",
                  "disabled": true,
                  "widget": {
                    "type": "input"
                  },
                  "validate": {
                    "required": false
                  },
                  "key": "course.displayCode",
                  "type": "textfield",
                  "input": true
                }
              ],
              "width": 2
            },
            {
              "components": [
                {
                  "label": "Course Name",
                  "labelPosition": "top",
                  "disabled": true,
                  "widget": {
                    "type": "input"
                  },
                  "validate": {
                    "required": false
                  },
                  "key": "course.name",
                  "type": "textfield",
                  "input": true
                }
              ],
              "width": 5
            },
            {
              "components": [
                {
                  "label": "Department Name",
                  "labelPosition": "top",
                  "disabled": true,
                  "widget": "choicesjs",
                  "dataSrc": "url",
                  "data": {
                    "url": "LocalDepartments/?$select=id,name",
                    "headers": []
                  },
                  "searchFields": ["id"],
                  "template": "<span class='d-block pr-5 text-truncate'>{{ item.name }}</span>",
                  "selectThreshold": 0.3,
                  "selectValues": "value",
                  "key": "course.department",
                  "type": "select",
                  "input": true,
                  "validate": {
                    "required": false
                  }
                }
              ],
              "width": 5
            }
          ]
        }
      ]
    },
    {
      "type": "fieldset",
      "legend": "Classes Details",
      "components": [
        {
          "customClass": "text-dark",
          "hideLabel": true,
          "type": "columns",
          "input": false,
          "columns": [
            {
              "components": [
                {
                  "label": "Class Title",
                  "labelPosition": "top",
                  "widget": {
                    "type": "input"
                  },
                  "validate": {
                    "required": true
                  },
                  "key": "title",
                  "type": "textfield",
                  "input": true,
                  "description": "Edit the title of this class. It can differ from academic year to academic year."
                }
              ],
              "width": 5
            },
            {
              "components": [
                {
                  "label": "Period",
                  "labelPosition": "top",
                  "disabled": true,
                  "widget": "choicesjs",
                  "dataSrc": "url",
                  "data": {
                    "url": "AcademicPeriods/?$select=id,name,alternateName",
                    "headers": []
                  },
                  "searchFields": ["id", "name"],
                  "template": "<span class='d-block pr-5 text-truncate'>{{ item.name }}</span>",
                  "selectValues": "value",
                  "key": "period.id",
                  "valueProperty": "id",
                  "type": "select",
                  "lazyLoad": false,
                  "input": true,
                  "validate": {
                    "required": false
                  }
                }
              ],
              "width": 2
            },
            {
              "components": [
                {
                  "label": "Academic Year",
                  "labelPosition": "top",
                  "disabled": true,
                  "widget": "choicesjs",
                  "dataSrc": "url",
                  "data": {
                    "url": "AcademicYears/?$top=-1&$select=id,name",
                    "headers": []
                  },
                  "searchFields": ["id", "name"],
                  "template": "<span class='d-block pr-5 text-truncate'>{{ item.name }}</span>",
                  "selectValues": "value",
                  "key": "year.id",
                  "valueProperty": "id",
                  "type": "select",
                  "lazyLoad": false,
                  "input": true,
                  "validate": {
                    "required": false
                  }
                }
              ],
              "width": 3
            }
          ]
        }
      ]
    },
    {
      "type": "fieldset",
      "legend": "Teaching Details",
      "components": [
        {
          "customClass": "text-dark",
          "hideLabel": true,
          "type": "columns",
          "input": false,
          "columns": [
            {
              "components": [
                {
                  "label": "Max Number of Students",
                  "labelPosition": "top",
                  "widget": {
                    "type": "input"
                  },
                  "validate": {
                    "required": false,
                    "integer": true,
                    "min": 0
                  },
                  "key": "maxNumberOfStudents",
                  "type": "number",
                  "input": true,
                  "description": "Set the maximum number of students that can be enrolled in this class. If left blank, no limit will be set."
                }
              ],
              "width": 4
            },
            {
              "components": [
                {
                  "label": "Week Hours",
                  "labelPosition": "top",
                  "widget": {
                    "type": "input"
                  },
                  "validate": {
                    "required": false,
                    "integer": true,
                    "min": 0
                  },
                  "key": "weekHours",
                  "type": "number",
                  "input": true,
                  "description": "Set the number of hours this class is being taught per week."
                }
              ],
              "width": 4
            },
            {
              "components": [
                {
                  "label": "Total Hours",
                  "labelPosition": "top",
                  "widget": {
                    "type": "input"
                  },
                  "validate": {
                    "required": false,
                    "integer": true,
                    "min": 0
                  },
                  "key": "totalHours",
                  "type": "number",
                  "input": true,
                  "description": "Set the total number of hours this class will be taught in the selected academic period"
                }
              ],
              "width": 4
            }
          ]
        }
      ]
    },
    {
      "type": "fieldset",
      "components": [
        {
          "customClass": "text-dark",
          "hideLabel": true,
          "type": "columns",
          "input": false,
          "columns": [
            {
              "components": [
                {
                  "label": "Must Register Section",
                  "labelPosition": "top",
                  "widget": "choicesjs",
                  "searchEnabled": false,
                  "data": {
                    "values": [
                      {
                        "label": "No",
                        "value": "0"
                      },
                      {
                        "label": "Yes",
                        "value": "1"
                      }
                    ]
                  },
                  "validate": {
                    "required": true
                  },
                  "defaultValue": "0",
                  "selectThreshold": 0.3,
                  "key": "mustRegisterSection",
                  "type": "select",
                  "input": true,
                  "description": "Select if the course class section registration is mandatory during course class registration"
                }
              ],
              "width": 4
            }
          ]
        }
      ]
    },
    {
      "type": "button",
      "label": "Submit",
      "key": "submit",
      "disableOnInvalid": true,
      "input": true
    }
  ]
}
