{
  "title": "Requests.ActiveStudentRequestActions",
  "model": "InternshipRegisterActions",
  "searchExpression": "(indexof(initiator/candidate/familyName, '${text}') ge 0 or indexof(initiator/candidate/givenName, '${text}') ge 0)",
  "selectable": true,
  "multipleSelect": true,
  "columns": [
    {
      "name": "initiator/candidate/familyName",
      "property": "familyName",
      "title": "Requests.FullName",
      "formatter": "TemplateFormatter",
      "formatString": "${familyName} ${givenName}"
    },
    {
      "name": "initiator/id",
      "property": "initiator",
      "title": "Internships.Candidates.Application",
      "hidden": true
    },
    {
      "name": "initiator/candidate/givenName",
      "property": "givenName",
      "title": "Requests.GivenName",
      "hidden": true
    },
    {
      "name": "initiator/candidate/email",
      "property": "candidateEmail",
      "title": "Internships.Candidates.Email"
    },
    {
      "name": "dateCreated",
      "property": "dateCreated",
      "title": "Requests.CreationDate",
      "formatter": "DateTimeFormatter",
      "formatString": "short",
      "hidden": true
    },
    {
      "name": "initiator/endTime",
      "property": "endTime",
      "title": "Internships.Candidates.DateSubmitted",
      "formatter": "DateTimeFormatter",
      "formatString": "short"
    },
    {
      "name": "dateModified",
      "property": "dateModified",
      "title": "Requests.DateModified",
      "formatter": "DateTimeFormatter",
      "formatString": "short"
    },
    {
      "name": "review/reviewRating",
      "property": "reviewRating",
      "title": "Internships.Candidates.ReviewRating"
    },
    {
      "name": "actionStatus/alternateName",
      "property": "actionStatus",
      "title": "Requests.Preview.Status",
      "formatters": [
        {
          "formatter": "TranslationFormatter",
          "formatString": "ActionStatusTypes.${value}"
        },
        {
          "formatter": "NgClassFormatter",
          "formatOptions": {
            "ngClass": {
              "text-danger": "'${actionStatus}'==='CancelledActionStatus' || '${actionStatus}'==='FailedActionStatus'",
              "text-primary": "'${actionStatus}'==='ActiveActionStatus' || '${actionStatus}'==='PotentialActionStatus'",
              "text-success": "'${actionStatus}'==='CompletedActionStatus'"
            }
          }
        }
      ]
    },
    {
      "name": "id",
      "formatter": "ButtonFormatter",
      "formatString": "#/candidates/item/${initiator}/edit",
      "className": "text-center",
      "formatOptions": {
        "buttonContent": "<i class=\"far fa-eye text-indigo\"></i>",
        "buttonClass": "btn btn-default",
        "commands": [
          {
            "outlets": {
              "modal": [
                "item",
                "${initiator}",
                "edit",
                "${id}"
              ]
            }
          }
        ],
        "navigationExtras": {
          "replaceUrl": false,
          "skipLocationChange": true
        }
      }
    }
  ],
  "defaults": {
    "orderBy": "dateCreated desc"
  },
  "paths": [],
  "criteria": [
    {
      "name": "candidateName",
      "filter": "(indexof(initiator/candidate/familyName, '${value}') ge 0 or indexof(initiator/candidate/givenName, '${value}') ge 0)",
      "type": "text"
    },
    {
      "name": "candidateEmail",
      "filter": "(indexof(initiator/candidate/email, '${value}') ge 0)",
      "type": "text"
    },
    {
      "name": "ratingGreaterThan",
      "filter": "(review/reviewRating ge ${value})",
      "type": "text"
    },
    {
      "name": "ratingLowerThan",
      "filter": "(review/reviewRating le ${value})",
      "type": "text"
    },
    {
      "name": "actionStatus",
      "filter": "(actionStatus/alternateName eq '${value}')",
      "type": "text"
    }
  ],
  "searches": []
}
