{
  "model": "StudentCounselors",
  "settings": {
    "i18n": {
      "el": {
        "Set the academic end year of the counseling": "Ορίστε το ακαδημαϊκό έτος λήξης της συμβουλευτικής",
        "Set the academic end period of the counseling": "Ορίστε την περίοδο λήξης της συμβουλευτικής",
        "End year": "Έτος λήξης",
        "End period": "Περίοδος λήξης"
      }
    }
  },
  "components": [
    {
      "type": "fieldset",
      "components": [
        {
          "columns": [
            {
              "components": [
                {
                  "label": "End year",
                  "labelPosition": "top",
                  "dataSrc": "url",
                  "data": {
                    "url": "AcademicYears/?$top=100&$orderby=id desc",
                    "headers": []
                  },
                  "searchFields": ["id", "name"],
                  "template": "<span class='d-block pr-5 text-truncate'>{{ item.name }}</span>",
                  "selectValues": "value",
                  "key": "toYear.id",
                  "valueProperty": "id",
                  "type": "select",
                  "lazyLoad": false,
                  "input": true,
                  "description": "Set the academic end year of the counseling",
                  "validate": {
                    "required": true
                  }
                }
              ],
              "width": 6
            },
            {
              "components": [
                {
                  "label": "End period",
                  "labelPosition": "top",
                  "dataSrc": "url",
                  "data": {
                    "url": "AcademicPeriods",
                    "headers": []
                  },
                  "validate": {
                    "required": true
                  },
                  "searchFields": ["id", "name"],
                  "template": "<span class='d-block pr-5 text-truncate'>{{ item.name }}</span>",
                  "selectValues": "value",
                  "key": "toPeriod.id",
                  "valueProperty": "id",
                  "type": "select",
                  "lazyLoad": false,
                  "input": true,
                  "description": "Select the academic end period of the counseling"

                }

              ],
              "width": 6
            },
            {
              "components": [
                {
                  "label": "End date",
                  "useLocaleSettings": true,
                  "tableView": false,
                  "enableMinDateInput": false,
                  "datePicker": {
                    "disableWeekends": false,
                    "disableWeekdays": false
                  },
                  "enableMaxDateInput": false,
                  "enableTime": false,
                  "key": "endDate",
                  "type": "datetime",
                  "input": true,
                  "validate": {
                  "required": true
                  },
                  "widget": {
                    "type": "calendar",
                    "displayInTimezone": "viewer",
                    "locale": "en",
                    "useLocaleSettings": true,
                    "allowInput": true,
                    "mode": "single",
                    "enableTime": false,
                    "noCalendar": false,
                    "format": "yyyy-MM-dd",
                    "hourIncrement": 1,
                    "minuteIncrement": 1,
                    "time_24hr": false,
                    "disableWeekends": false,
                    "disableWeekdays": false
                  }
                }
              ],
              "width": 6,
              "offset": 0,
              "push": 0,
              "pull": 0
            }
          ],
          "customClass": "text-dark",
          "hideLabel": true,
          "type": "columns",
          "input": false
        }
      ]
    }
  ],
  "width": 3
}
