{
  "title": "Registrar Users",
  "model": "Users",
  "searchExpression": "indexof(alternateName, '${text}') ge 0 or indexof(name, '${text}') ge 0",
  "selectable": true,
  "multipleSelect": true,
  "columns": [
    {
      "name": "name",
      "property": "name",
      "title": "Departments.Name"
    },
    {
      "name": "alternateName",
      "property": "alternateName",
      "title": "Departments.AlternateName"
    },
    {
      "name": "enabled",
      "property": "enabled",
      "title": "Departments.StatusTitle",
      "formatter": "TranslationFormatter",
      "formatString": "Departments.UserStatusTypes.${value}"
    },
    {
      "name": "id",
      "property": "userId",
      "hidden": true
    }
  ],
  "defaults": {
    "filter": "(groups/name eq 'Registrar')"
  }
}
