{
  "title": "SemesterRules",
  "model": "StudyProgramSemesterRules",
  "selectable": true,
  "multipleSelect": true,
  "searchExpression": "indexof(semester/name, '${text}') ge 0)",
  "columns": [
    {
      "name": "id",
      "formatter": "ButtonFormatter",
      "property": "id",
      "className": "text-center",
      "formatOptions": {
        "buttonContent": "<i class=\"fas fa-edit text-indigo\"></i>",
        "buttonClass": "btn btn-default",
        "commands": [
          {
            "outlets": {
              "modal": [
                "${id}",
                "edit"
              ]
            }
          }
        ],
        "navigationExtras": {
          "replaceUrl": true,
          "skipLocationChange": true
        }
      }
    },
    {
      "name": "additionalType",
      "property": "additionalType",
      "title": "StudyPrograms.RuleType",
      "formatters": [
        {
          "formatter": "TranslationFormatter",
          "formatString": "StudyPrograms.${value}"
        },
        {
          "formatter": "NgClassFormatter",
          "formatOptions": {
            "ngClass": {
              "text-primary": "'${additionalType}'==='SemesterRule'",
              "text-success": "'${additionalType}'==='RegistrationRule'"
            }
          }
        }
      ]
    },
    {
      "name": "semester/name",
      "property": "semester",
      "title": "StudyPrograms.Semester"
    },
    {
      "name": "courseTypes",
      "property": "courseTypes",
      "virtual": true,
      "sortable": false,
      "title": "StudyPrograms.CourseTypes",
      "formatters": [
        {
          "formatter": "TemplateFormatter",
          "formatString": "${courseTypes.length ? courseTypes.map(x => x.name).join(',') : 'StudyPrograms.AllTypes'}"
        },
        {
          "formatter": "TranslationFormatter",
          "formatString": "${value}"
        }
      ]
    },
    {
      "name": "courses",
      "className": "text-center",
      "property": "courses",
      "title": "StudyPrograms.Courses",
      "formatter": "NgClassFormatter",
      "formatOptions": {
        "ngClass": {
          "text-secondary": "'${courses}'==='0'",
          "text-success font-xl": "'${courses}'>'0'"
        }
      }
    },
    {
      "name": "ects",
      "className": "text-center",
      "property": "ects",
      "title": "ECTS",
      "formatter": "NgClassFormatter",
      "formatOptions": {
        "ngClass": {
          "text-secondary": "'${ects}'==='0'",
          "text-success font-xl": "'${ects}'>'0'"
        }
      }
    },
    {
      "name": "units",
      "property": "units",
      "className": "text-center",
      "title": "Courses.units",
      "formatter": "NgClassFormatter",
      "formatOptions": {
        "ngClass": {
          "text-secondary": "'${units}'==='0'",
          "text-success font-xl": "'${units}'>'0'"
        }
      }
    },
    {
      "name": "hours",
      "property": "hours",
      "className": "text-center",
      "title": "StudyPrograms.Hours",
      "formatter": "NgClassFormatter",
      "formatOptions": {
        "ngClass": {
          "text-secondary": "'${hours}'==='0'",
          "text-success font-xl": "'${hours}'>'0'"
        }
      }
    }
  ],
  "defaults": {
    "expand": "courseTypes"
  },
  "criteria": [
    {
      "name": "semester",
      "filter": "(semester/name eq '${value}')",
      "type": "text"
    },
    {
      "name": "additionalType",
      "filter": "(additionalType eq '${value}')",
      "type": "text"
    }
  ]
}
