{
    "settings": {
      "i18n": {
        "el": {
            "Attachment Type": "Τύπος Επισύναψης",
            "Select the attachment type": "Επιλέξτε τον τύπο της επισύναψης"
        }
      }
    },
    "components": [
      {
        "columns": [
          {
            "components": [
                {
                    "label": "Attachment Type",
                    "dataSrc": "url",
                    "data": {
                        "url": "AttachmentTypes",
                        "headers": []
                    },
                    "validate": {
                        "required": true
                    },
                    "template": "<span class='text-truncate'>{{ item.name }}</span>",
                    "selectValues": "value",
                    "refreshOnChange": false,
                    "type": "select",
                    "input": true,
                    "key": "attachmentTypes",
                    "description": "Select the attachment type"
                }
            ],
            "width": 6
          }
        ],
        "customClass": "text-dark",
        "hideLabel": true,
        "type": "columns",
        "input": false
      }
    ]
  }
  