{
  "model": "StudentSuspensions",
   "settings": {
    "i18n": {
      "el": {

      }
    }
  },
  "components": [
    {
      "type": "fieldset",
      "legend": "Student Suspend Information",
      "components": [
        {
          "columns": [
            {
              "components": [
                {
                  "label": "Suspend Date",
                  "key": "suspensionDate",
                  "labelPosition": "top",
                  "widget": {
                    "type": "input"
                  },
                  "validate": {
                    "required": true
                  },
                  "type": "datetime",
                  "format": "dd/MM/yyyy",
                  "input": true
                }
              ],
              "width": 4
            },
            {
              "components": [
                {
                  "label": "Suspend Year",
                  "labelPosition": "top",
                  "key": "suspensionYear.id",
                  "type": "select",
                  "searchEnabled": false,
                  "dataSrc": "url",
                  "data": {
                    "url": "AcademicYears?$top={{limit}}&$skip={{skip}}&$orderby=id desc",
                    "headers": []
                  },
                  "limit": 20,
                  "template": "{{ item.alternateName }}",
                  "input": true,
                  "lazyLoad": true,
                  "selectValues": "value",
                  "widget": "choicesjs",
                  "validate": {
                    "required": true
                  },
                  "disabled": true
                }
              ],
              "width": 4
            },
            {
              "components": [
                {
                  "label": "Suspend Period",
                  "labelPosition": "top",
                  "widget": "choicesjs",
                  "dataSrc": "url",
                  "data": {
                    "url": "AcademicPeriods",
                    "headers": []
                  },
                  "template": "{{ item.name }}",
                  "selectValues": "value",
                  "key": "suspensionPeriod.name",
                  "type": "select",
                  "input": true,
                  "searchEnabled": false,
                  "validate": {
                    "required": true
                  },
                  "disabled": true
                }
              ],
              "width": 4
            },
            {
              "components": [
                {
                  "label": "Suspend Periods",
                  "labelPosition": "top",
                  "dataSrc": "url",
                  "widget": {
                    "type": "input"
                  },
                  "data": {
                  },
                  "template": "{{ item.name }}",
                  "selectValues": "value",
                  "key": "suspensionPeriods",
                  "type": "number",
                  "input": true,
                  "searchEnabled": false,
                  "validate": {
                    "required": true
                  }
                }
              ],
              "width": 4
            },
            {
              "components": [
                {
                  "label": "Suspend Type",
                  "labelPosition": "top",
                  "widget": {
                    "type": "input"
                  },
                  "validate": {
                    "required": false
                  },
                  "key": "suspensionType",
                  "type": "textfield",
                  "input": true
                }
              ],
              "width": 4
            },
            {
              "components": [
                {
                  "label": "Suspension Protocol Number",
                  "labelPosition": "top",
                  "widget": {
                    "type": "input"
                  },
                  "validate": {
                    "required": false
                  },
                  "key": "suspensionProtocolNumber",
                  "type": "textfield",
                  "input": true
                }
              ],
              "width": 4
            },
            {
              "components": [
                {
                  "label": "Suspend Comments",
                  "labelPosition": "top",
                  "widget": {
                    "type": "input"
                  },
                  "validate": {
                    "required": false
                  },
                  "key": "comments",
                  "type": "textarea",
                  "input": true
                }
              ],
              "width": 12
            }
          ],
          "customClass": "text-dark",
          "hideLabel": true,
          "type": "columns",
          "input": false
        }
      ]
    },
    {
      "type": "fieldset",
      "legend": "Student Reintegration Information",
      "components": [
        {
          "label": "Reintegrated",
          "tableView": true,
          "key": "reintegrated",
          "type": "checkbox",
          "input": true,
          "defaultValue": false,
          "customClass": "my-3 py-3",
          "logic": [
            {
              "name": "disableLogic",
              "trigger": {
                "type": "javascript",
                "javascript": "result = (data.student && data.student.studentStatus && data.student.studentStatus.alternateName !== 'suspended')"
              },
              "actions": [
                {
                  "name": "disableCheck",
                  "type": "property",
                  "property": {
                    "label": "Disabled",
                    "value": "disabled",
                    "type": "boolean"
                  },
                  "state": true
                }
              ]
            }
          ]
        },
        {
          "columns": [
            {
              "components": [
                {
                  "label": "Reintegration Date",
                  "key": "reintegrationDate",
                  "labelPosition": "top",
                  "widget": {
                    "type": "input"
                  },
                  "validate": {
                    "required": "true"
                  },
                  "type": "datetime",
                  "format": "dd/MM/yyyy",
                  "input": true,
                  "customConditional": "show=!!data.reintegrated"
                }
              ],
              "width": 4
            },
            {
              "components": [
                {
                  "label": "Reintegration Year",
                  "labelPosition": "top",
                  "key": "reintegrationYear",
                  "type": "select",
                  "searchEnabled": false,
                  "dataSrc": "url",
                  "data": {
                    "url": "AcademicYears?$top={{limit}}&$skip={{skip}}&$orderby=id desc&$filter=id ge {{data.suspensionYear.id}}",
                    "headers": []
                  },
                  "customConditional": "show=!!data.reintegrated && data.suspensionYear",
                  "limit": 20,
                  "template": "{{ item.alternateName }}",
                  "input": true,
                  "lazyLoad": true,
                  "selectValues": "value",
                  "widget": "choicesjs",
                  "validate": {
                    "required": "true"
                  },
                  "logic": [
                    {
                      "name": "disableLogic",
                      "trigger": {
                        "type": "javascript",
                        "javascript": "result = (data.student && data.student.studentStatus && data.student.studentStatus.alternateName !== 'suspended')"
                      },
                      "actions": [
                        {
                          "name": "disableCheck",
                          "type": "property",
                          "property": {
                            "label": "Disabled",
                            "value": "disabled",
                            "type": "boolean"
                          },
                          "state": true
                        }
                      ]
                    }
                  ]
                }
              ],
              "width": 4
            },
            {
              "components": [
                {
                  "label": "Reintegration Period",
                  "labelPosition": "top",
                  "widget": "choicesjs",
                  "dataSrc": "url",
                  "data": {
                    "url": "AcademicPeriods",
                    "headers": []
                  },
                  "template": "{{ item.name }}",
                  "selectValues": "value",
                  "key": "reintegrationPeriod",
                  "type": "select",
                  "input": true,
                  "searchEnabled": false,
                  "validate": {
                    "required": "true"
                  },
                  "customConditional": "show=!!data.reintegrated",
                  "logic": [
                    {
                      "name": "disableLogic",
                      "trigger": {
                        "type": "javascript",
                        "javascript": "result = (data.student && data.student.studentStatus && data.student.studentStatus.alternateName !== 'suspended')"
                      },
                      "actions": [
                        {
                          "name": "disableCheck",
                          "type": "property",
                          "property": {
                            "label": "Disabled",
                            "value": "disabled",
                            "type": "boolean"
                          },
                          "state": true
                        }
                      ]
                    }
                  ]
                }
              ],
              "width": 4
            },
            {
              "components": [
                {
                  "label": "Reintegration Semester",
                  "labelPosition": "top",
                  "dataSrc": "url",
                  "widget": {
                    "type": "input"
                  },
                  "data": {
                  },
                  "template": "{{ item.name }}",
                  "selectValues": "value",
                  "key": "reintegrationSemester",
                  "type": "number",
                  "input": true,
                  "searchEnabled": false,
                  "validate": {
                    "required": "true"
                  },
                  "customConditional": "show=!!data.reintegrated",
                  "logic": [
                    {
                      "name": "disableLogic",
                      "trigger": {
                        "type": "javascript",
                        "javascript": "result = (data.student && data.student.studentStatus && data.student.studentStatus.alternateName !== 'suspended')"
                      },
                      "actions": [
                        {
                          "name": "disableCheck",
                          "type": "property",
                          "property": {
                            "label": "Disabled",
                            "value": "disabled",
                            "type": "boolean"
                          },
                          "state": true
                        }
                      ]
                    }
                  ]
                }
              ],
              "width": 4
            },
            {
              "components": [
                {
                  "label": "Reintegration Protocol Number",
                  "labelPosition": "top",
                  "widget": {
                    "type": "input"
                  },
                  "validate": {
                    "required": false
                  },
                  "key": "reintegrationProtocolNumber",
                  "type": "textfield",
                  "input": true,
                  "customConditional": "show=!!data.reintegrated"
                }
              ],
              "width": 4
            },
            {
              "components": [
                {
                  "label": "Reintegration Type",
                  "labelPosition": "top",
                  "widget": {
                    "type": "input"
                  },
                  "validate": {
                    "required": false
                  },
                  "key": "reintegrationType",
                  "type": "textfield",
                  "input": true,
                  "customConditional": "show=!!data.reintegrated"
                }
              ],
              "width": 4
            }
          ],
          "customClass": "text-dark",
          "hideLabel": true,
          "type": "columns",
          "input": false
        }
      ]
    },
    {
      "type": "button",
      "label": "Submit",
      "key": "submit",
      "disableOnInvalid": true,
      "input": true
    }
  ],
  "width": 3
}
