{
  "model": "CourseClassSections",
  "settings": {
    "i18n": {
      "el": {
        "Course class instructors are available": "Διατίθενται οι διδάσκοντες του μαθήματος",
        "Course Class Section Details": "Πληροφορίες τμήματος τάξης",
        "Course Class Section Name": "Όνομα τμήματος τάξης",
        "Set the title of the the class section": "Ορίστε τον τίτλο του τμήματος της τάξης",
        "Edit the maximum number of students this class section can accept. Leaving this blank, no cap will be set.": "Ορίστε τον μέγιστο αριθμό φοιτητών που μπορούν να εγγραφούν σε αυτό το τμήμα. Αφήνοντας το κενό, δε θα οριστεί κάποιο όριο."
      }
    }
  },
  "components": [
    {
      "type": "fieldset",
      "legend": "Course Class Section Details",
      "components": [
        {
          "customClass": "text-dark",
          "hideLabel": true,
          "type": "columns",
          "input": true,
          "columns": [

            {
              "components": [
                {
                  "label": "Course Class Section Name",
                  "labelPosition": "top",
                  "widget": {
                    "type": "input"
                  },
                  "validate": {
                    "required": true
                  },
                  "key": "name",
                  "type": "textfield",
                  "input": true,
                  "description": "Set the title of the the class section"
                }
              ],
              "width": 7
            },
            {
              "components": [
                {
                  "label": "Instructor1",
                  "widget": "choicesjs",
                  "dataSrc": "url",
                  "defaultValue": "",
                  "labelPosition": "top",
                  "data": {
                    "values": [],
                    "url": "CourseClassInstructors?$top-1&$filter=courseClass eq '{{data.courseClass.id}}'&$select=instructor/id as id, instructor/familyName as familyName, instructor/givenName as givenName",
                    "headers": []
                  },
                  "lazyLoad": true,
                  "description": "Course class instructors are available",
                  "searchField": "search",
                  "searchEnabled": true,
                  "selectThreshold": 0.3,
                  "limit": 200,
                  "validate": {
                    "required": false
                  },
                  "valueProperty": "id",
                  "dataType": "string",
                  "template": "{{ item.familyName }} {{ item.givenName }}",
                  "key": "instructor1",
                  "type": "select",
                  "selectValues": "value",
                  "input": true,
                  "lazyLoad": false
                }
              ],
              "width": 4
            },
            {
              "components": [
                {
                  "label": "Instructor2",
                  "widget": "choicesjs",
                  "dataSrc": "url",
                  "defaultValue": null,
                  "labelPosition": "top",
                  "data": {
                    "values": [],
                    "url": "CourseClassInstructors?$top-1&$filter=courseClass eq '{{data.courseClass.id}}'&$select=instructor/id as id, instructor/familyName as familyName, instructor/givenName as givenName",
                    "headers": []
                  },
                  "lazyLoad": true,
                  "searchField": "search",
                  "searchEnabled": true,
                  "selectThreshold": 0.3,
                  "limit": 200,
                  "validate": {
                    "required": false
                  },
                  "valueProperty": "id",
                  "dataType": "string",
                  "template": "{{ item.familyName }} {{ item.givenName }}",
                  "key": "instructor2",
                  "type": "select",
                  "selectValues": "value",
                  "input": true,
                  "lazyLoad": false
                }
              ],
              "width": 4
            },
            {
              "components": [
                {
                  "label": "Instructor3",
                  "widget": "choicesjs",
                  "dataSrc": "url",
                  "defaultValue": "",
                  "labelPosition": "top",
                  "data": {
                    "values": [],
                    "url": "CourseClassInstructors?$top-1&$filter=courseClass eq '{{data.courseClass.id}}'&$select=instructor/id as id, instructor/familyName as familyName, instructor/givenName as givenName",
                    "headers": []
                  },
                  "lazyLoad": true,
                  "searchField": "search",
                  "searchEnabled": true,
                  "selectThreshold": 0.3,
                  "limit": 200,
                  "validate": {
                    "required": false
                  },
                  "valueProperty": "id",
                  "dataType": "string",
                  "template": "{{ item.familyName }} {{ item.givenName }}",
                  "key": "instructor3",
                  "type": "select",
                  "selectValues": "value",
                  "input": true,
                  "lazyLoad": false
                }
              ],
              "width": 4
            },
            {
              "components": [
                {
                  "label": "Max Number of Students",
                  "labelPosition": "top",
                  "widget": {
                    "type": "input"
                  },
                  "validate": {
                    "required": false,
                    "integer": true
                  },
                  "key": "maxNumberOfStudents",
                  "type": "number",
                  "input": true,
                  "description": "Edit the maximum number of students this class section can accept. Leaving this blank, no cap will be set."
                }
              ],
              "width": 4
            },
            {
              "components": [
                {
                  "label": "Notes",
                  "labelPosition": "top",
                  "widget": {
                    "type": "input"
                  },
                  "validate": {
                    "required": false
                  },
                  "key": "notes",
                  "type": "textarea",
                  "input": true
                }
              ],
              "width": 12,
              "offset": 0,
              "push": 0,
              "pull": 0
            },
            {
              "components": [
                {
                  "label": "Active",
                  "labelPosition": "top",
                  "widget": {
                    "type": "input"
                  },
                  "defaultValue": 1,
                  "validate": {
                    "required": false,
                    "integer": true
                  },
                  "key": "active",
                  "type": "number",
                  "input": true,
                  "hidden": true
                }
              ],
              "width": 3,
              "offset": 0,
              "push": 0,
              "pull": 0
            }
          ]
        }
      ]
    },
    {
      "type": "button",
      "label": "Submit",
      "key": "submit",
      "disableOnInvalid": true,
      "input": true
    }
  ]
}
